{
    "instances": [
        "_PAD_NER", 
        "O", 
        "B-PER", 
        "I-PER", 
        "E-PER", 
        "B-TIME", 
        "E-TIME", 
        "B-LOC", 
        "E-LOC", 
        "S-LOC", 
        "S-PER", 
        "S-ORG", 
        "B-ORG", 
        "E-ORG", 
        "I-LOC", 
        "I-TIME", 
        "I-ORG", 
        "B-VAL", 
        "E-VAL", 
        "I-VAL", 
        "S-VAL", 
        "S-TIME", 
        "I-NP", 
        "LOCAL\""
    ], 
    "instance2index": {
        "I-LOC": 14, 
        "B-TIME": 5, 
        "_PAD_NER": 0, 
        "S-PER": 10, 
        "E-LOC": 8, 
        "E-PER": 4, 
        "I-PER": 3, 
        "B-PER": 2, 
        "E-ORG": 13, 
        "B-VAL": 17, 
        "O": 1, 
        "S-TIME": 21, 
        "S-LOC": 9, 
        "I-VAL": 19, 
        "I-NP": 22, 
        "S-ORG": 11, 
        "I-TIME": 15, 
        "B-ORG": 12, 
        "LOCAL\"": 23, 
        "E-TIME": 6, 
        "S-VAL": 20, 
        "E-VAL": 18, 
        "I-ORG": 16, 
        "B-LOC": 7
    }
}